{
    "misc": {
        "step_x": "Крок [number]",
        "step_x_description": "Крок [number]: [description]",
        "option_x_description": "Можливість [number]: [description]",
        "overview": {
            "tutorial_x_title": "Порадник [number]: [title]",
            "title": "Що ви можете робити зі застосунком F-Droid",
            "summary": "F-Droid це незалежним застосунком, який є застосункою крамницею для Android'у, розроблюється його спільното та є повністю вільною з відкритим вихідним кодом. Ви маєте змогу переглядати понад 1200 застосунків з відкртим кодом, шукати і встановлювати застосунки зі створених репозиторіїв або створити власний. Завітайте до f-droid.org на Андроїдовому телефоні, завантажити застосунок та розпочинайте!"
        }
    },
    "add_repo": {
        "overview": {
            "summary": "Аби отримати більше, додайте сховище до F-Droid'у. Коморою даних є збірка відібраного вмісту. Ви маєте можливість дізнатися про комори даних инших людей. Розробники часто залишають ланку до F-Droid'ових комор даних на їхніх сайтах. Часто тренери ширяти ланки до комор даних через е-листи, Фейсбук або Твіттер.",
            "title": "Одержати більше."
        },
        "open_repo_link": {
            "short_summary": "Відкрити ланку до сховища",
            "title": "Відкрити ланку до сховища на вашому телефонові"
        },
        "title": "Як додати сховище до F-Droid'у"
    },
    "create_repo": {
        "share_repo": {
            "title": "Пристосуйте ваше сховище"
        },
        "title": "Як створити сховище",
        "download_and_install": {
            "steps": {
                "step_3": "Створити нове сховище та надати йому назву."
            }
        },
        "update_repo": {
            "title": "Оновіть ваше сховище"
        },
        "related_tutorial": "Вам може бути цікаво: <a href='../add-repo/'>Як додати сховище до F-Droid'у</a>",
        "customize_repo": {
            "title": "Пристосуйте ваше сховище"
        }
    }
}
